Getting familiar with R
…
library(historydata)

We are historians, and we want to work with complex data. Another reason R is awesome is that it includes a kind of data structure called data frames. Think of a data frame as basically a spreadsheet. It is tabular data, and the columns can contain any kind of data available in R, such as character vectors, numeric vectors, or logical vectors. R has some sample data built in, but lets use some historical data from the historydata package.

We dont know what is in the historydata package, so lets look at its help. Run this command: help(package = "historydata"). (In general, you dont want to include commands like help() or install.packages() in these worksheets. Just run them at the R console.)

Lets use the data in the paulist_missions data frame. According to the package documentation, what is in this data frame?

The data frame is a list of Paulist missions sorted by church, city, state and duration of days and weeks.

We can print it by using the name of the variable.

paulist_missions

## # A tibble: 841 x 17
##    mission_number church city  state date_start date_end    year decade
##             <int> <chr>  <chr> <chr> <date>     <date>     <dbl> <chr> 
##  1              1 St. J New  NY    1851-04-06 1851-04-20  1851 1850s 
##  2              2 St. M Lore PA    1851-04-27 1851-05-11  1851 1850s 
##  3              3 St. M Holl PA    1851-05-18 1851-05-28  1851 1850s 
##  4              4 Churc John PA    1851-05-31 1851-06-08  1851 1850s 
##  5              5 St. P New  NY    1851-09-28 1851-10-12  1851 1850s 
##  6              6 St. P New  NY    1851-10-19 1851-11-03  1851 1850s 
##  7              7 St. P Erie  PA    1851-11-17 1851-11-28  1851 1850s 
##  8              8 St. P Cuss PA    1851-12-01 1851-12-08  1851 1850s 
##  9              9 St. V Youn PA    1851-12-10 1851-12-19  1851 1850s 
## 10             10 St. P Sara NY    1852-01-11 1852-01-22  1852 1850s 
## #  with 831 more rows, and 9 more variables: duration_days <int>,
## #   duration_weeks <ord>, confessions <int>, converts <int>, order <chr>,
## #   lat <dbl>, long <dbl>, volume <int>, page <int>
…
